INC_CODINC|INC_CODTIP|TIP_NOMBRE|INC_CODSUB|SBT_NOMBRE|INC_CODCLI|INC_CODCEN|INC_NOMBRE|INC_DESBRE|INC_PEVEIN|INC_PEDIDO|INC_ESTADO|INC_FECHA|INA_FECALT|INC_USUCRE|INC_CODDES|DES_RAZSOC|INC_INTASG|INT_NOMBRE|INL_CODLIN|LPV_ARTICU|ART_CODEXT|ART_DENOMI|LPV_CANENV|INL_CANTID
339784|02|Inconsistencias de Despacho |01|Faltante|1|01|FALTANTE 1 PAQ COD 104159 LOT 4121121 CONT 3784529 F/V11-15|FALTANTE 1 PAQ COD 104159 LOT 4121121 CONT 3784529 F/V11-15|581420|I-252149|01|12/03/2013 11:42:58 a.m.|08/09/2013 01:02:32 p.m.|2143|18793|166_FARMA_CALLE_106|21|Central Logistica|322|104159|104159|PANAL INCONTINENCIA TENA SLIP TALLA M PA|10|1|
363257|02|Inconsistencias de Despacho |03|No Solicitado|1|01|NO SOLICITADO=CAJA CAPTOPRIL 50 MG, LOTE 030413 FV.30-06-15,CONTENEDOR 6093264.|MOLLIER=6 CAJAS|649484|I-298907|01|12/07/2013 05:41:20 p.m.|08/09/2013 12:30:02 p.m.|141|18819|172_FARMA_CALLE_99|21|Central Logistica|61|96689|96689|CLORFENIRAMINA 2MG/5ML JBE LABINCO FCO X|6|6|
367680|02|Inconsistencias de Despacho |02|Sobrante|1|01|Llego 1 caja como sobrante de pedido lote No 22812, vence 09-2014 del producto de codigo No 55497, sobrente detectado durante recepcion tecnica de pedido. gracias att Ana||661631|I-305892|01|24/07/2013 01:31:51 p.m.|08/09/2013 12:32:36 p.m.|2424|1229|FARMASANITAS JUMBO TUNJA|21|Central Logistica|10|66290|66290|CLOPIDROGEL 75MG TAB MK CAJ X 10|2|1|
368000|02|Inconsistencias de Despacho |02|Sobrante|1|01|CONTENEDOR 6366566 LOTE OC040 VTO 30-DEC14|64416-SOBRANTE 1 CAJA|662470|I-306563|01|25/07/2013 05:01:58 p.m.|08/09/2013 12:11:24 p.m.|1941|17847|110_FARMA_TUTELAS_CALLE_116|21|Central Logistica|125|64416|64416|JANUMET 50MG/1000MG TAB CAJ X 28|49|1|
368023|02|Inconsistencias de Despacho |01|Faltante|1|01|CONTENEDOR : 6370004
FV:30-DIC-2020
LOTE : 1212|ARCON 86220|661602|I-305857|01|25/07/2013 05:58:39 p.m.|08/09/2013 12:20:14 p.m.|2125|18770|164_FARMA_CEDRO_BOLIVAR|21|Central Logistica|56|86220|86220|VENDA ELASTICA BLANCA 3X5YDAS BOL X 1|1|9|
373336|02|Inconsistencias de Despacho |02|Sobrante|1|01|CONTENEDOR 63008202 LOTE 0CO46 VTO 30-DEC-14|64416-SOBRANTE 1 CAJA|648496|I-297739|01|13/08/2013 03:10:46 p.m.|08/09/2013 12:11:33 p.m.|1941|17847|110_FARMA_TUTELAS_CALLE_116|21|Central Logistica|242|64416|64416|JANUMET 50MG/1000MG TAB CAJ X 28|66|1|
374596|02|Inconsistencias de Despacho |02|Sobrante|1|01|en el pedido I-313849 en el contenedor 6411086 vienen relacionadas 87 unidades del codigo 59920 y fisicas llegaron 93 por lo tanto tenemos un sobrante de 6 unidades de este producto|59920|673882|I-313849|01|16/08/2013 10:04:48 a.m.|08/09/2013 12:17:33 p.m.|1722|15079|18_FARMA_ALMACEN_CIRUGIA_VILLAVICENCIO|21|Central Logistica|29|59920|59920|VICRYL *VLT PLUS 0 1-CT1 90CM SOB X 1|12|6|
374996|02|Inconsistencias de Despacho |01|Faltante|1|01|En el contenedor 6370238, llega el codigo 20179 CORDARONE 150 MG AMP, llegan en fisico 19 Amp, faltantes 2 Amp.|20179 CORDARONE 150 MG AMP|672854|I-313316|01|17/08/2013 07:47:55 a.m.|08/09/2013 03:10:52 p.m.|3301|2339|232_FAR_FARMACIA_INTERNA_HISPANOAMERICA|21|Central Logistica|52|20179|20179|CORDARONE 150MG AMP CAJ X 6|50|50|
375736|02|Inconsistencias de Despacho |01|Faltante|1|01|En el contenedor 6431170 se encuentra faltante del producto con cod 27088 cater aspiracion No 12 Cant 2 unidades lote 02113205-13|Faltante cod 27088 cantidad 2 unid|675355|I-314993|01|21/08/2013 12:14:57 p.m.|08/09/2013 03:20:46 p.m.|483|6649|FARMA_URG_CLINICA_VERSALLES|21|Central Logistica|6|27088|27088|CATETER ASPIRACION 12FR SHERLEG SOB X 1|2|0|
